INDEX VERSION 1.131+C:\Users\Jana\.m2\repository\sistema-farmacia\Workspace\.metadata\.plugins\org.eclipse.jdt.core
1870082367.index
4013810105.index
374594476.index
625963301.index
2734895168.index
2894849925.index
1918225692.index
3984255774.index
3499446782.index
1669213225.index
4166101757.index
2530313595.index
1237651286.index
1790323693.index
3292632878.index
3578912340.index
2895878108.index
4227754891.index
512818566.index
2985262129.index
2247208325.index
4206430044.index
