127.0.0.1 - - [12/Aug/2020:10:45:19 -0300] "GET / HTTP/1.1" 404 951
0:0:0:0:0:0:0:1 - - [12/Aug/2020:10:46:26 -0300] "GET /Farmacia/faces/pages/principal.xhtml HTTP/1.1" 200 6044
0:0:0:0:0:0:0:1 - - [12/Aug/2020:10:46:26 -0300] "GET /Farmacia/faces/javax.faces.resource/style.css;jsessionid=35602365E3019F79C0C95266C285FFA2?ln=css HTTP/1.1" 200 258
0:0:0:0:0:0:0:1 - - [12/Aug/2020:10:46:26 -0300] "GET /Farmacia/faces/javax.faces.resource/jquery/jquery-plugins.js;jsessionid=35602365E3019F79C0C95266C285FFA2?ln=primefaces&v=4.0 HTTP/1.1" 200 220747
0:0:0:0:0:0:0:1 - - [12/Aug/2020:10:46:26 -0300] "GET /Farmacia/faces/javax.faces.resource/layout/layout.css;jsessionid=35602365E3019F79C0C95266C285FFA2?ln=primefaces&v=4.0 HTTP/1.1" 200 542
0:0:0:0:0:0:0:1 - - [12/Aug/2020:10:46:26 -0300] "GET /Farmacia/faces/javax.faces.resource/jquery/jquery.js;jsessionid=35602365E3019F79C0C95266C285FFA2?ln=primefaces&v=4.0 HTTP/1.1" 200 105493
0:0:0:0:0:0:0:1 - - [12/Aug/2020:10:46:26 -0300] "GET /Farmacia/faces/javax.faces.resource/primefaces.js;jsessionid=35602365E3019F79C0C95266C285FFA2?ln=primefaces&v=4.0 HTTP/1.1" 200 277201
0:0:0:0:0:0:0:1 - - [12/Aug/2020:10:46:26 -0300] "GET /Farmacia/faces/javax.faces.resource/layout/layout.js;jsessionid=35602365E3019F79C0C95266C285FFA2?ln=primefaces&v=4.0 HTTP/1.1" 200 87653
0:0:0:0:0:0:0:1 - - [12/Aug/2020:10:46:26 -0300] "GET /Farmacia/faces/javax.faces.resource/scripts.js;jsessionid=35602365E3019F79C0C95266C285FFA2?ln=js HTTP/1.1" 200 250
0:0:0:0:0:0:0:1 - - [12/Aug/2020:10:46:26 -0300] "GET /Farmacia/faces/javax.faces.resource/primefaces.css;jsessionid=35602365E3019F79C0C95266C285FFA2?ln=primefaces&v=4.0 HTTP/1.1" 200 53386
0:0:0:0:0:0:0:1 - - [12/Aug/2020:10:46:27 -0300] "GET /favicon.ico HTTP/1.1" 404 973
0:0:0:0:0:0:0:1 - - [12/Aug/2020:10:46:36 -0300] "GET /Farmacia/faces/pages/fornecedores.xhtml;jsessionid=35602365E3019F79C0C95266C285FFA2 HTTP/1.1" 200 28830
0:0:0:0:0:0:0:1 - - [12/Aug/2020:10:46:42 -0300] "POST /Farmacia/faces/pages/fornecedores.xhtml HTTP/1.1" 200 1964
0:0:0:0:0:0:0:1 - - [12/Aug/2020:10:46:44 -0300] "POST /Farmacia/faces/pages/fornecedores.xhtml HTTP/1.1" 200 3584
0:0:0:0:0:0:0:1 - - [12/Aug/2020:10:46:44 -0300] "POST /Farmacia/faces/pages/fornecedores.xhtml HTTP/1.1" 200 11716
