127.0.0.1 - - [11/Aug/2020:23:00:29 -0300] "GET / HTTP/1.1" 404 951
0:0:0:0:0:0:0:1 - - [11/Aug/2020:23:00:53 -0300] "GET /Farmacia/faces/pages/principal.xhtml HTTP/1.1" 200 6045
0:0:0:0:0:0:0:1 - - [11/Aug/2020:23:00:53 -0300] "GET /Farmacia/faces/javax.faces.resource/style.css;jsessionid=346AA3A41B49562B4C46072D5CAE6B98?ln=css HTTP/1.1" 200 258
0:0:0:0:0:0:0:1 - - [11/Aug/2020:23:00:53 -0300] "GET /Farmacia/faces/javax.faces.resource/layout/layout.css;jsessionid=346AA3A41B49562B4C46072D5CAE6B98?ln=primefaces&v=4.0 HTTP/1.1" 200 542
0:0:0:0:0:0:0:1 - - [11/Aug/2020:23:00:53 -0300] "GET /Farmacia/faces/javax.faces.resource/jquery/jquery.js;jsessionid=346AA3A41B49562B4C46072D5CAE6B98?ln=primefaces&v=4.0 HTTP/1.1" 200 105493
0:0:0:0:0:0:0:1 - - [11/Aug/2020:23:00:53 -0300] "GET /Farmacia/faces/javax.faces.resource/jquery/jquery-plugins.js;jsessionid=346AA3A41B49562B4C46072D5CAE6B98?ln=primefaces&v=4.0 HTTP/1.1" 200 220747
0:0:0:0:0:0:0:1 - - [11/Aug/2020:23:00:53 -0300] "GET /Farmacia/faces/javax.faces.resource/layout/layout.js;jsessionid=346AA3A41B49562B4C46072D5CAE6B98?ln=primefaces&v=4.0 HTTP/1.1" 200 87653
0:0:0:0:0:0:0:1 - - [11/Aug/2020:23:00:53 -0300] "GET /Farmacia/faces/javax.faces.resource/primefaces.js;jsessionid=346AA3A41B49562B4C46072D5CAE6B98?ln=primefaces&v=4.0 HTTP/1.1" 200 277201
0:0:0:0:0:0:0:1 - - [11/Aug/2020:23:00:53 -0300] "GET /Farmacia/faces/javax.faces.resource/scripts.js;jsessionid=346AA3A41B49562B4C46072D5CAE6B98?ln=js HTTP/1.1" 200 250
0:0:0:0:0:0:0:1 - - [11/Aug/2020:23:00:53 -0300] "GET /Farmacia/faces/javax.faces.resource/theme.css?ln=primefaces-trontastic HTTP/1.1" 200 18614
0:0:0:0:0:0:0:1 - - [11/Aug/2020:23:00:53 -0300] "GET /Farmacia/faces/javax.faces.resource/primefaces.css;jsessionid=346AA3A41B49562B4C46072D5CAE6B98?ln=primefaces&v=4.0 HTTP/1.1" 200 53386
0:0:0:0:0:0:0:1 - - [11/Aug/2020:23:00:54 -0300] "GET /Farmacia/faces/javax.faces.resource/images/ui-bg_gloss-wave_55_000000_500x100.png?ln=primefaces-trontastic HTTP/1.1" 200 3153
0:0:0:0:0:0:0:1 - - [11/Aug/2020:23:00:54 -0300] "GET /Farmacia/faces/javax.faces.resource/images/ui-icons_9fda58_256x240.png?ln=primefaces-trontastic HTTP/1.1" 200 4369
0:0:0:0:0:0:0:1 - - [11/Aug/2020:23:00:54 -0300] "GET /favicon.ico HTTP/1.1" 404 973
127.0.0.1 - - [11/Aug/2020:23:05:12 -0300] "GET / HTTP/1.1" 404 951
0:0:0:0:0:0:0:1 - - [11/Aug/2020:23:05:44 -0300] "GET /Farmacia/faces/pages/principal.xhtml HTTP/1.1" 200 6045
0:0:0:0:0:0:0:1 - - [11/Aug/2020:23:05:44 -0300] "GET /Farmacia/faces/javax.faces.resource/style.css;jsessionid=5CB80D270AAD504F4B3EE5FB5B493642?ln=css HTTP/1.1" 200 258
0:0:0:0:0:0:0:1 - - [11/Aug/2020:23:05:44 -0300] "GET /Farmacia/faces/javax.faces.resource/layout/layout.css;jsessionid=5CB80D270AAD504F4B3EE5FB5B493642?ln=primefaces&v=4.0 HTTP/1.1" 200 542
0:0:0:0:0:0:0:1 - - [11/Aug/2020:23:05:44 -0300] "GET /Farmacia/faces/javax.faces.resource/jquery/jquery-plugins.js;jsessionid=5CB80D270AAD504F4B3EE5FB5B493642?ln=primefaces&v=4.0 HTTP/1.1" 200 220747
0:0:0:0:0:0:0:1 - - [11/Aug/2020:23:05:44 -0300] "GET /Farmacia/faces/javax.faces.resource/primefaces.js;jsessionid=5CB80D270AAD504F4B3EE5FB5B493642?ln=primefaces&v=4.0 HTTP/1.1" 200 277201
0:0:0:0:0:0:0:1 - - [11/Aug/2020:23:05:44 -0300] "GET /Farmacia/faces/javax.faces.resource/jquery/jquery.js;jsessionid=5CB80D270AAD504F4B3EE5FB5B493642?ln=primefaces&v=4.0 HTTP/1.1" 200 105493
0:0:0:0:0:0:0:1 - - [11/Aug/2020:23:05:44 -0300] "GET /Farmacia/faces/javax.faces.resource/layout/layout.js;jsessionid=5CB80D270AAD504F4B3EE5FB5B493642?ln=primefaces&v=4.0 HTTP/1.1" 200 87653
0:0:0:0:0:0:0:1 - - [11/Aug/2020:23:05:44 -0300] "GET /Farmacia/faces/javax.faces.resource/scripts.js;jsessionid=5CB80D270AAD504F4B3EE5FB5B493642?ln=js HTTP/1.1" 200 250
0:0:0:0:0:0:0:1 - - [11/Aug/2020:23:05:44 -0300] "GET /Farmacia/faces/javax.faces.resource/primefaces.css;jsessionid=5CB80D270AAD504F4B3EE5FB5B493642?ln=primefaces&v=4.0 HTTP/1.1" 200 53386
0:0:0:0:0:0:0:1 - - [11/Aug/2020:23:05:44 -0300] "GET /favicon.ico HTTP/1.1" 404 973
0:0:0:0:0:0:0:1 - - [11/Aug/2020:23:05:46 -0300] "GET /Farmacia/faces/javax.faces.resource/images/ui-bg_glass_60_000000_1x400.png?ln=primefaces-trontastic HTTP/1.1" 200 129
0:0:0:0:0:0:0:1 - - [11/Aug/2020:23:05:46 -0300] "GET /Farmacia/faces/javax.faces.resource/images/ui-icons_b8ec79_256x240.png?ln=primefaces-trontastic HTTP/1.1" 200 4369
0:0:0:0:0:0:0:1 - - [11/Aug/2020:23:05:56 -0300] "GET /Farmacia/faces/pages/fornecedores.xhtml;jsessionid=5CB80D270AAD504F4B3EE5FB5B493642 HTTP/1.1" 200 28840
0:0:0:0:0:0:0:1 - - [11/Aug/2020:23:05:56 -0300] "GET /Farmacia/faces/javax.faces.resource/style.css?ln=css HTTP/1.1" 200 258
0:0:0:0:0:0:0:1 - - [11/Aug/2020:23:05:56 -0300] "GET /Farmacia/faces/javax.faces.resource/jquery/jquery.js?ln=primefaces&v=4.0 HTTP/1.1" 200 105493
0:0:0:0:0:0:0:1 - - [11/Aug/2020:23:05:57 -0300] "GET /Farmacia/faces/javax.faces.resource/layout/layout.css?ln=primefaces&v=4.0 HTTP/1.1" 200 542
0:0:0:0:0:0:0:1 - - [11/Aug/2020:23:05:57 -0300] "GET /Farmacia/faces/javax.faces.resource/jquery/jquery-plugins.js?ln=primefaces&v=4.0 HTTP/1.1" 200 220747
0:0:0:0:0:0:0:1 - - [11/Aug/2020:23:05:57 -0300] "GET /Farmacia/faces/javax.faces.resource/primefaces.js?ln=primefaces&v=4.0 HTTP/1.1" 200 277201
0:0:0:0:0:0:0:1 - - [11/Aug/2020:23:05:57 -0300] "GET /Farmacia/faces/javax.faces.resource/scripts.js?ln=js HTTP/1.1" 200 250
0:0:0:0:0:0:0:1 - - [11/Aug/2020:23:05:57 -0300] "GET /Farmacia/faces/javax.faces.resource/layout/layout.js?ln=primefaces&v=4.0 HTTP/1.1" 200 87653
0:0:0:0:0:0:0:1 - - [11/Aug/2020:23:05:57 -0300] "GET /Farmacia/faces/javax.faces.resource/primefaces.css?ln=primefaces&v=4.0 HTTP/1.1" 200 53386
0:0:0:0:0:0:0:1 - - [11/Aug/2020:23:05:57 -0300] "GET /Farmacia/faces/javax.faces.resource/images/ui-bg_gloss-wave_85_9fda58_500x100.png?ln=primefaces-trontastic HTTP/1.1" 200 4381
0:0:0:0:0:0:0:1 - - [11/Aug/2020:23:05:57 -0300] "GET /Farmacia/faces/javax.faces.resource/images/ui-bg_flat_0_4c4c4c_40x100.png?ln=primefaces-trontastic HTTP/1.1" 200 211
0:0:0:0:0:0:0:1 - - [11/Aug/2020:23:05:57 -0300] "GET /Farmacia/faces/javax.faces.resource/images/ui-bg_glass_40_0a0a0a_1x400.png?ln=primefaces-trontastic HTTP/1.1" 200 127
0:0:0:0:0:0:0:1 - - [11/Aug/2020:23:06:01 -0300] "POST /Farmacia/faces/pages/fornecedores.xhtml HTTP/1.1" 200 615
0:0:0:0:0:0:0:1 - - [11/Aug/2020:23:06:01 -0300] "GET /Farmacia/faces/javax.faces.resource/images/ui-bg_diagonals-small_50_262626_40x40.png?ln=primefaces-trontastic HTTP/1.1" 200 184
0:0:0:0:0:0:0:1 - - [11/Aug/2020:23:06:06 -0300] "POST /Farmacia/faces/pages/fornecedores.xhtml HTTP/1.1" 200 16620
0:0:0:0:0:0:0:1 - - [11/Aug/2020:23:06:06 -0300] "GET /Farmacia/faces/javax.faces.resource/images/ui-bg_glass_55_f1fbe5_1x400.png?ln=primefaces-trontastic HTTP/1.1" 200 123
0:0:0:0:0:0:0:1 - - [11/Aug/2020:23:06:06 -0300] "GET /Farmacia/faces/javax.faces.resource/images/ui-icons_000000_256x240.png?ln=primefaces-trontastic HTTP/1.1" 200 4369
0:0:0:0:0:0:0:1 - - [11/Aug/2020:23:06:06 -0300] "GET /Farmacia/faces/javax.faces.resource/messages/messages.png?ln=primefaces&v=4.0 HTTP/1.1" 200 27245
0:0:0:0:0:0:0:1 - - [11/Aug/2020:23:06:52 -0300] "GET /Farmacia/faces/pages/fornecedores.xhtml;jsessionid=5CB80D270AAD504F4B3EE5FB5B493642 HTTP/1.1" 200 28840
127.0.0.1 - - [11/Aug/2020:23:07:10 -0300] "GET / HTTP/1.1" 404 951
0:0:0:0:0:0:0:1 - - [11/Aug/2020:23:07:38 -0300] "GET /Farmacia/faces/pages/principal.xhtml HTTP/1.1" 200 6044
0:0:0:0:0:0:0:1 - - [11/Aug/2020:23:07:38 -0300] "GET /Farmacia/faces/javax.faces.resource/primefaces.js;jsessionid=DDCAFE51393C901CADE33C5FE20ED81E?ln=primefaces&v=4.0 HTTP/1.1" 200 277201
0:0:0:0:0:0:0:1 - - [11/Aug/2020:23:07:38 -0300] "GET /Farmacia/faces/javax.faces.resource/jquery/jquery.js;jsessionid=DDCAFE51393C901CADE33C5FE20ED81E?ln=primefaces&v=4.0 HTTP/1.1" 200 105493
0:0:0:0:0:0:0:1 - - [11/Aug/2020:23:07:38 -0300] "GET /Farmacia/faces/javax.faces.resource/jquery/jquery-plugins.js;jsessionid=DDCAFE51393C901CADE33C5FE20ED81E?ln=primefaces&v=4.0 HTTP/1.1" 200 220747
0:0:0:0:0:0:0:1 - - [11/Aug/2020:23:07:38 -0300] "GET /Farmacia/faces/javax.faces.resource/layout/layout.css;jsessionid=DDCAFE51393C901CADE33C5FE20ED81E?ln=primefaces&v=4.0 HTTP/1.1" 200 542
0:0:0:0:0:0:0:1 - - [11/Aug/2020:23:07:38 -0300] "GET /Farmacia/faces/javax.faces.resource/style.css;jsessionid=DDCAFE51393C901CADE33C5FE20ED81E?ln=css HTTP/1.1" 200 258
0:0:0:0:0:0:0:1 - - [11/Aug/2020:23:07:38 -0300] "GET /Farmacia/faces/javax.faces.resource/layout/layout.js;jsessionid=DDCAFE51393C901CADE33C5FE20ED81E?ln=primefaces&v=4.0 HTTP/1.1" 200 87653
0:0:0:0:0:0:0:1 - - [11/Aug/2020:23:07:38 -0300] "GET /Farmacia/faces/javax.faces.resource/scripts.js;jsessionid=DDCAFE51393C901CADE33C5FE20ED81E?ln=js HTTP/1.1" 200 250
0:0:0:0:0:0:0:1 - - [11/Aug/2020:23:07:38 -0300] "GET /Farmacia/faces/javax.faces.resource/primefaces.css;jsessionid=DDCAFE51393C901CADE33C5FE20ED81E?ln=primefaces&v=4.0 HTTP/1.1" 200 53386
0:0:0:0:0:0:0:1 - - [11/Aug/2020:23:07:38 -0300] "GET /favicon.ico HTTP/1.1" 404 973
0:0:0:0:0:0:0:1 - - [11/Aug/2020:23:07:44 -0300] "GET /Farmacia/faces/pages/fornecedores.xhtml;jsessionid=DDCAFE51393C901CADE33C5FE20ED81E HTTP/1.1" 200 28840
0:0:0:0:0:0:0:1 - - [11/Aug/2020:23:07:50 -0300] "POST /Farmacia/faces/pages/fornecedores.xhtml HTTP/1.1" 200 1963
0:0:0:0:0:0:0:1 - - [11/Aug/2020:23:07:51 -0300] "POST /Farmacia/faces/pages/fornecedores.xhtml HTTP/1.1" 200 1963
0:0:0:0:0:0:0:1 - - [11/Aug/2020:23:07:52 -0300] "POST /Farmacia/faces/pages/fornecedores.xhtml HTTP/1.1" 200 11718
0:0:0:0:0:0:0:1 - - [11/Aug/2020:23:07:57 -0300] "POST /Farmacia/faces/pages/fornecedores.xhtml HTTP/1.1" 200 1965
0:0:0:0:0:0:0:1 - - [11/Aug/2020:23:08:00 -0300] "POST /Farmacia/faces/pages/fornecedores.xhtml HTTP/1.1" 200 11718
0:0:0:0:0:0:0:1 - - [11/Aug/2020:23:08:06 -0300] "GET /Farmacia/faces/pages/produtos.xhtml HTTP/1.1" 200 28121
0:0:0:0:0:0:0:1 - - [11/Aug/2020:23:08:12 -0300] "POST /Farmacia/faces/pages/produtos.xhtml HTTP/1.1" 200 7671
0:0:0:0:0:0:0:1 - - [11/Aug/2020:23:08:33 -0300] "POST /Farmacia/faces/pages/produtos.xhtml HTTP/1.1" 200 12482
0:0:0:0:0:0:0:1 - - [11/Aug/2020:23:08:48 -0300] "POST /Farmacia/faces/pages/produtos.xhtml HTTP/1.1" 200 13960
0:0:0:0:0:0:0:1 - - [11/Aug/2020:23:09:26 -0300] "GET /Farmacia/faces/pages/fornecedores.xhtml HTTP/1.1" 200 28825
0:0:0:0:0:0:0:1 - - [11/Aug/2020:23:09:30 -0300] "POST /Farmacia/faces/pages/fornecedores.xhtml HTTP/1.1" 200 1964
0:0:0:0:0:0:0:1 - - [11/Aug/2020:23:09:32 -0300] "GET /Farmacia/faces/javax.faces.resource/images/ui-icons_ffffff_256x240.png?ln=primefaces-trontastic HTTP/1.1" 200 4369
0:0:0:0:0:0:0:1 - - [11/Aug/2020:23:09:32 -0300] "POST /Farmacia/faces/pages/fornecedores.xhtml HTTP/1.1" 200 424
0:0:0:0:0:0:0:1 - - [11/Aug/2020:23:09:35 -0300] "POST /Farmacia/faces/pages/fornecedores.xhtml HTTP/1.1" 200 6407
0:0:0:0:0:0:0:1 - - [11/Aug/2020:23:09:35 -0300] "POST /Farmacia/faces/pages/fornecedores.xhtml HTTP/1.1" 200 11715
