127.0.0.1 - - [05/May/2020:17:00:34 -0300] "GET / HTTP/1.1" 404 951
127.0.0.1 - - [05/May/2020:18:12:46 -0300] "GET / HTTP/1.1" 404 951
0:0:0:0:0:0:0:1 - - [05/May/2020:18:13:07 -0300] "GET /Farmacia/faces/templates/modeloSistema.xhtml HTTP/1.1" 500 3768
0:0:0:0:0:0:0:1 - - [05/May/2020:18:13:07 -0300] "GET /favicon.ico HTTP/1.1" 404 973
0:0:0:0:0:0:0:1 - - [05/May/2020:18:35:06 -0300] "GET /Farmacia/faces/templates/modeloSistema.xhtml HTTP/1.1" 500 3768
127.0.0.1 - - [05/May/2020:18:35:37 -0300] "GET / HTTP/1.1" 404 951
0:0:0:0:0:0:0:1 - - [05/May/2020:18:35:50 -0300] "GET /Farmacia/faces/templates/modeloSistema.xhtml HTTP/1.1" 500 3768
0:0:0:0:0:0:0:1 - - [05/May/2020:18:36:54 -0300] "GET /Farmacia/faces/templates/modeloSistema.xhtml HTTP/1.1" 200 888
