127.0.0.1 - - [18/May/2020:21:24:19 -0300] "GET / HTTP/1.1" 404 951
0:0:0:0:0:0:0:1 - - [18/May/2020:21:24:49 -0300] "GET /Farmacia/faces/pages/principal.xhtml HTTP/1.1" 200 5529
0:0:0:0:0:0:0:1 - - [18/May/2020:21:24:50 -0300] "GET /Farmacia/faces/javax.faces.resource/style.css;jsessionid=2F6F8F769308941B9C6C6063921DD7BE?ln=css HTTP/1.1" 200 280
0:0:0:0:0:0:0:1 - - [18/May/2020:21:24:50 -0300] "GET /Farmacia/faces/javax.faces.resource/layout/layout.css;jsessionid=2F6F8F769308941B9C6C6063921DD7BE?ln=primefaces&v=4.0 HTTP/1.1" 200 542
0:0:0:0:0:0:0:1 - - [18/May/2020:21:24:50 -0300] "GET /Farmacia/faces/javax.faces.resource/primefaces.js;jsessionid=2F6F8F769308941B9C6C6063921DD7BE?ln=primefaces&v=4.0 HTTP/1.1" 200 277201
0:0:0:0:0:0:0:1 - - [18/May/2020:21:24:50 -0300] "GET /Farmacia/faces/javax.faces.resource/layout/layout.js;jsessionid=2F6F8F769308941B9C6C6063921DD7BE?ln=primefaces&v=4.0 HTTP/1.1" 200 87653
0:0:0:0:0:0:0:1 - - [18/May/2020:21:24:50 -0300] "GET /Farmacia/faces/javax.faces.resource/jquery/jquery.js;jsessionid=2F6F8F769308941B9C6C6063921DD7BE?ln=primefaces&v=4.0 HTTP/1.1" 200 105493
0:0:0:0:0:0:0:1 - - [18/May/2020:21:24:50 -0300] "GET /Farmacia/faces/javax.faces.resource/jquery/jquery-plugins.js;jsessionid=2F6F8F769308941B9C6C6063921DD7BE?ln=primefaces&v=4.0 HTTP/1.1" 200 220747
0:0:0:0:0:0:0:1 - - [18/May/2020:21:24:50 -0300] "GET /Farmacia/faces/javax.faces.resource/theme.css?ln=primefaces-aristo HTTP/1.1" 200 28107
0:0:0:0:0:0:0:1 - - [18/May/2020:21:24:50 -0300] "GET /Farmacia/faces/javax.faces.resource/primefaces.css;jsessionid=2F6F8F769308941B9C6C6063921DD7BE?ln=primefaces&v=4.0 HTTP/1.1" 200 53386
0:0:0:0:0:0:0:1 - - [18/May/2020:21:24:51 -0300] "GET /Farmacia/faces/javax.faces.resource/images/ui-icons_616161_256x240.png?ln=primefaces-aristo HTTP/1.1" 304 -
0:0:0:0:0:0:0:1 - - [18/May/2020:21:24:53 -0300] "GET /Farmacia/faces/javax.faces.resource/images/ui-icons_38667f_256x240.png?ln=primefaces-aristo HTTP/1.1" 304 -
0:0:0:0:0:0:0:1 - - [18/May/2020:21:35:13 -0300] "GET /Farmacia/faces/pages/principal.xhtml HTTP/1.1" 200 5177
0:0:0:0:0:0:0:1 - - [18/May/2020:21:35:13 -0300] "GET /Farmacia/faces/javax.faces.resource/style.css?ln=css HTTP/1.1" 200 258
0:0:0:0:0:0:0:1 - - [18/May/2020:21:35:13 -0300] "GET /Farmacia/faces/javax.faces.resource/layout/layout.css?ln=primefaces&v=4.0 HTTP/1.1" 200 542
0:0:0:0:0:0:0:1 - - [18/May/2020:21:35:13 -0300] "GET /Farmacia/faces/javax.faces.resource/jquery/jquery-plugins.js?ln=primefaces&v=4.0 HTTP/1.1" 200 220747
0:0:0:0:0:0:0:1 - - [18/May/2020:21:35:13 -0300] "GET /Farmacia/faces/javax.faces.resource/layout/layout.js?ln=primefaces&v=4.0 HTTP/1.1" 200 87653
0:0:0:0:0:0:0:1 - - [18/May/2020:21:35:13 -0300] "GET /Farmacia/faces/javax.faces.resource/jquery/jquery.js?ln=primefaces&v=4.0 HTTP/1.1" 200 105493
0:0:0:0:0:0:0:1 - - [18/May/2020:21:35:13 -0300] "GET /Farmacia/faces/javax.faces.resource/primefaces.js?ln=primefaces&v=4.0 HTTP/1.1" 200 277201
0:0:0:0:0:0:0:1 - - [18/May/2020:21:35:13 -0300] "GET /Farmacia/faces/javax.faces.resource/theme.css?ln=primefaces-aristo HTTP/1.1" 200 28107
0:0:0:0:0:0:0:1 - - [18/May/2020:21:35:13 -0300] "GET /Farmacia/faces/javax.faces.resource/primefaces.css?ln=primefaces&v=4.0 HTTP/1.1" 200 53386
0:0:0:0:0:0:0:1 - - [18/May/2020:21:35:13 -0300] "GET /Farmacia/faces/javax.faces.resource/images/ui-icons_616161_256x240.png?ln=primefaces-aristo HTTP/1.1" 304 -
0:0:0:0:0:0:0:1 - - [18/May/2020:21:35:15 -0300] "GET /Farmacia/faces/javax.faces.resource/images/ui-icons_38667f_256x240.png?ln=primefaces-aristo HTTP/1.1" 200 4369
0:0:0:0:0:0:0:1 - - [18/May/2020:21:35:24 -0300] "GET /Farmacia/faces/pages/principal.xhtml HTTP/1.1" 200 5176
0:0:0:0:0:0:0:1 - - [18/May/2020:21:35:24 -0300] "GET /Farmacia/faces/javax.faces.resource/primefaces.js?ln=primefaces&v=4.0 HTTP/1.1" 304 -
0:0:0:0:0:0:0:1 - - [18/May/2020:21:35:24 -0300] "GET /Farmacia/faces/javax.faces.resource/jquery/jquery.js?ln=primefaces&v=4.0 HTTP/1.1" 304 -
0:0:0:0:0:0:0:1 - - [18/May/2020:21:35:24 -0300] "GET /Farmacia/faces/javax.faces.resource/jquery/jquery-plugins.js?ln=primefaces&v=4.0 HTTP/1.1" 304 -
0:0:0:0:0:0:0:1 - - [18/May/2020:21:35:24 -0300] "GET /Farmacia/faces/javax.faces.resource/layout/layout.js?ln=primefaces&v=4.0 HTTP/1.1" 304 -
0:0:0:0:0:0:0:1 - - [18/May/2020:21:35:24 -0300] "GET /Farmacia/faces/javax.faces.resource/theme.css?ln=primefaces-aristo HTTP/1.1" 304 -
0:0:0:0:0:0:0:1 - - [18/May/2020:21:35:24 -0300] "GET /Farmacia/faces/javax.faces.resource/primefaces.css?ln=primefaces&v=4.0 HTTP/1.1" 304 -
0:0:0:0:0:0:0:1 - - [18/May/2020:21:35:24 -0300] "GET /Farmacia/faces/javax.faces.resource/layout/layout.css?ln=primefaces&v=4.0 HTTP/1.1" 304 -
0:0:0:0:0:0:0:1 - - [18/May/2020:21:35:24 -0300] "GET /Farmacia/faces/javax.faces.resource/style.css?ln=css HTTP/1.1" 200 258
0:0:0:0:0:0:0:1 - - [18/May/2020:21:35:25 -0300] "GET /Farmacia/faces/javax.faces.resource/images/ui-icons_616161_256x240.png?ln=primefaces-aristo HTTP/1.1" 200 4369
127.0.0.1 - - [18/May/2020:21:48:50 -0300] "GET / HTTP/1.1" 404 951
0:0:0:0:0:0:0:1 - - [18/May/2020:21:49:03 -0300] "GET /Farmacia/faces/pages/principal.xhtml HTTP/1.1" 200 5179
0:0:0:0:0:0:0:1 - - [18/May/2020:21:49:03 -0300] "GET /Farmacia/faces/javax.faces.resource/style.css?ln=css HTTP/1.1" 304 -
0:0:0:0:0:0:0:1 - - [18/May/2020:21:49:03 -0300] "GET /Farmacia/faces/javax.faces.resource/primefaces.js?ln=primefaces&v=4.0 HTTP/1.1" 304 -
0:0:0:0:0:0:0:1 - - [18/May/2020:21:49:03 -0300] "GET /Farmacia/faces/javax.faces.resource/layout/layout.js?ln=primefaces&v=4.0 HTTP/1.1" 304 -
0:0:0:0:0:0:0:1 - - [18/May/2020:21:49:03 -0300] "GET /Farmacia/faces/javax.faces.resource/layout/layout.css?ln=primefaces&v=4.0 HTTP/1.1" 304 -
0:0:0:0:0:0:0:1 - - [18/May/2020:21:49:03 -0300] "GET /Farmacia/faces/javax.faces.resource/jquery/jquery.js?ln=primefaces&v=4.0 HTTP/1.1" 304 -
0:0:0:0:0:0:0:1 - - [18/May/2020:21:49:03 -0300] "GET /Farmacia/faces/javax.faces.resource/jquery/jquery-plugins.js?ln=primefaces&v=4.0 HTTP/1.1" 304 -
0:0:0:0:0:0:0:1 - - [18/May/2020:21:49:03 -0300] "GET /Farmacia/faces/javax.faces.resource/primefaces.css?ln=primefaces&v=4.0 HTTP/1.1" 304 -
0:0:0:0:0:0:0:1 - - [18/May/2020:21:49:03 -0300] "GET /Farmacia/faces/javax.faces.resource/theme.css?ln=primefaces-bootstrap HTTP/1.1" 200 34952
0:0:0:0:0:0:0:1 - - [18/May/2020:21:49:03 -0300] "GET /Farmacia/faces/javax.faces.resource/images/ui-icons_333333_256x240.png?ln=primefaces-bootstrap HTTP/1.1" 200 4369
0:0:0:0:0:0:0:1 - - [18/May/2020:21:49:03 -0300] "GET /favicon.ico HTTP/1.1" 404 973
0:0:0:0:0:0:0:1 - - [18/May/2020:21:49:05 -0300] "GET /Farmacia/faces/javax.faces.resource/images/ui-icons_ffffff_256x240.png?ln=primefaces-bootstrap HTTP/1.1" 200 4369
0:0:0:0:0:0:0:1 - - [18/May/2020:21:49:20 -0300] "GET /Farmacia/faces/pages/principal.xhtml HTTP/1.1" 200 5177
0:0:0:0:0:0:0:1 - - [18/May/2020:21:49:20 -0300] "GET /Farmacia/faces/javax.faces.resource/primefaces.css?ln=primefaces&v=4.0 HTTP/1.1" 304 -
0:0:0:0:0:0:0:1 - - [18/May/2020:21:49:20 -0300] "GET /Farmacia/faces/javax.faces.resource/jquery/jquery.js?ln=primefaces&v=4.0 HTTP/1.1" 304 -
0:0:0:0:0:0:0:1 - - [18/May/2020:21:49:20 -0300] "GET /Farmacia/faces/javax.faces.resource/layout/layout.css?ln=primefaces&v=4.0 HTTP/1.1" 304 -
0:0:0:0:0:0:0:1 - - [18/May/2020:21:49:20 -0300] "GET /Farmacia/faces/javax.faces.resource/theme.css?ln=primefaces-bootstrap HTTP/1.1" 304 -
0:0:0:0:0:0:0:1 - - [18/May/2020:21:49:20 -0300] "GET /Farmacia/faces/javax.faces.resource/layout/layout.js?ln=primefaces&v=4.0 HTTP/1.1" 304 -
0:0:0:0:0:0:0:1 - - [18/May/2020:21:49:20 -0300] "GET /Farmacia/faces/javax.faces.resource/primefaces.js?ln=primefaces&v=4.0 HTTP/1.1" 304 -
0:0:0:0:0:0:0:1 - - [18/May/2020:21:49:20 -0300] "GET /Farmacia/faces/javax.faces.resource/jquery/jquery-plugins.js?ln=primefaces&v=4.0 HTTP/1.1" 304 -
0:0:0:0:0:0:0:1 - - [18/May/2020:21:49:20 -0300] "GET /Farmacia/faces/javax.faces.resource/style.css?ln=css HTTP/1.1" 200 258
0:0:0:0:0:0:0:1 - - [18/May/2020:21:49:20 -0300] "GET /Farmacia/faces/javax.faces.resource/images/ui-icons_333333_256x240.png?ln=primefaces-bootstrap HTTP/1.1" 304 -
